Ch06-FPGAArchitecture/SyncCounter/counterALL_tb.vcd
$date
	Mon Aug 29 10:42:57 2022
$end
$version
	Icarus Verilog
$end
$timescale
	100ps
$end
$scope module counterALL_tb $end
$var wire 4 ! countPSN [3:0] $end
$var wire 4 " countPSE [3:0] $end
$var wire 4 # countPAN [3:0] $end
$var wire 4 $ countPAE [3:0] $end
$var wire 4 % countNSE [3:0] $end
$var wire 4 & countNAE [3:0] $end
$var reg 1 ' clk $end
$var reg 1 ( en $end
$var reg 1 ) rst $end
$scope module uut1 $end
$var wire 1 ' clk $end
$var wire 1 ( en $end
$var wire 1 ) rst $end
$var reg 4 * count [3:0] $end
$scope begin COUNTER $end
$upscope $end
$upscope $end
$scope module uut2 $end
$var wire 1 ' clk $end
$var wire 1 ( en $end
$var wire 1 ) rst $end
$var reg 4 + count [3:0] $end
$scope begin COUNTER $end
$upscope $end
$upscope $end
$scope module uut3 $end
$var wire 1 ' clk $end
$var wire 1 ( en $end
$var wire 1 ) rst $end
$var reg 4 , count [3:0] $end
$scope begin COUNTER $end
$upscope $end
$upscope $end
$scope module uut4 $end
$var wire 1 ' clk $end
$var wire 1 ) rst $end
$var reg 4 - count [3:0] $end
$scope begin COUNTER $end
$upscope $end
$upscope $end
$scope module uut5 $end
$var wire 1 ' clk $end
$var wire 1 ( en $end
$var wire 1 ) rst $end
$var reg 4 . count [3:0] $end
$scope begin COUNTER $end
$upscope $end
$upscope $end
$scope module uut6 $end
$var wire 1 ' clk $end
$var wire 1 ) rst $end
$var reg 4 / count [3:0] $end
$scope begin COUNTER $end
$upscope $end
$upscope $end
$upscope $end
$enddefinitions $end
#0
$dumpvars
bx /
bx .
bx -
bx ,
bx +
bx *
x)
x(
1'
bx &
bx %
bx $
bx #
bx "
bx !
$end
#10
0(
1)
#20
b0 &
b0 *
b0 #
b0 -
b0 $
b0 ,
#50
1(
#100
0'
#110
b0 %
b0 +
#200
1'
#210
b0 !
b0 /
b0 "
b0 .
#290
0)
#300
0'
#310
b1 &
b1 *
b1 %
b1 +
#400
1'
#410
b1 #
b1 -
b1 $
b1 ,
b1 !
b1 /
b1 "
b1 .
#500
0'
#510
b10 &
b10 *
b10 %
b10 +
#600
1'
#610
b10 #
b10 -
b10 $
b10 ,
b10 !
b10 /
b10 "
b10 .
#700
0'
#710
b11 &
b11 *
b11 %
b11 +
#800
1'
#810
b11 #
b11 -
b11 $
b11 ,
b11 !
b11 /
b11 "
b11 .
#900
0'
#910
b100 &
b100 *
b100 %
b100 +
#1000
1'
#1010
b100 #
b100 -
b100 $
b100 ,
b100 !
b100 /
b100 "
b100 .
#1100
0'
#1110
b101 &
b101 *
b101 %
b101 +
#1200
1'
#1210
b101 #
b101 -
b101 $
b101 ,
b101 !
b101 /
b101 "
b101 .
#1300
0'
#1310
b110 &
b110 *
b110 %
b110 +
#1400
1'
#1410
b110 #
b110 -
b110 $
b110 ,
b110 !
b110 /
b110 "
b110 .
#1500
0'
#1510
b111 &
b111 *
b111 %
b111 +
#1600
1'
#1610
b111 #
b111 -
b111 $
b111 ,
b111 !
b111 /
b111 "
b111 .
#1700
0'
#1710
b1000 &
b1000 *
b1000 %
b1000 +
#1800
1'
#1810
b1000 #
b1000 -
b1000 $
b1000 ,
b1000 !
b1000 /
b1000 "
b1000 .
#1900
0'
#1910
b1001 &
b1001 *
b1001 %
b1001 +
#1990
1)
#2000
b0 &
b0 *
b0 #
b0 -
b0 $
b0 ,
1'
#2010
b0 !
b0 /
b0 "
b0 .
#2100
0'
#2110
b0 %
b0 +
#2190
0)
#2200
1'
#2210
b1 #
b1 -
b1 $
b1 ,
b1 !
b1 /
b1 "
b1 .
#2300
0'
#2310
b1 &
b1 *
b1 %
b1 +
#2400
1'
#2410
b10 #
b10 -
b10 $
b10 ,
b10 !
b10 /
b10 "
b10 .
#2500
0'
#2510
b10 &
b10 *
b10 %
b10 +
#2600
1'
#2610
b11 #
b11 -
b11 $
b11 ,
b11 !
b11 /
b11 "
b11 .
#2700
0'
#2710
b11 &
b11 *
b11 %
b11 +
#2800
1'
#2810
b100 #
b100 -
b100 $
b100 ,
b100 !
b100 /
b100 "
b100 .
#2900
0'
#2910
b100 &
b100 *
b100 %
b100 +
#2990
0(
#3000
1'
#3010
b101 #
b101 -
b101 !
b101 /
#3100
0'
#3200
1'
#3210
b110 #
b110 -
b110 !
b110 /
#3300
0'
#3400
1'
#3410
b111 #
b111 -
b111 !
b111 /
#3500
0'
#3600
1'
#3610
b1000 #
b1000 -
b1000 !
b1000 /
#3700
0'
#3800
1'
#3810
b1001 #
b1001 -
b1001 !
b1001 /
#3900
0'
#3990
1(
#4000
1'
#4010
b1010 #
b1010 -
b101 $
b101 ,
b1010 !
b1010 /
b101 "
b101 .
#4100
0'
#4110
b101 &
b101 *
b101 %
b101 +
#4200
1'
#4210
b1011 #
b1011 -
b110 $
b110 ,
b1011 !
b1011 /
b110 "
b110 .
#4300
0'
#4310
b110 &
b110 *
b110 %
b110 +
#4400
1'
#4410
b1100 #
b1100 -
b111 $
b111 ,
b1100 !
b1100 /
b111 "
b111 .
#4500
0'
#4510
b111 &
b111 *
b111 %
b111 +
#4600
1'
#4610
b1101 #
b1101 -
b1000 $
b1000 ,
b1101 !
b1101 /
b1000 "
b1000 .
#4700
0'
#4710
b1000 &
b1000 *
b1000 %
b1000 +
#4800
1'
#4810
b1110 #
b1110 -
b1001 $
b1001 ,
b1110 !
b1110 /
b1001 "
b1001 .
#4900
0'
#4910
b1001 &
b1001 *
b1001 %
b1001 +
#5000
1'
#5010
b1111 #
b1111 -
b1010 $
b1010 ,
b1111 !
b1111 /
b1010 "
b1010 .
#5100
0'
#5110
b1010 &
b1010 *
b1010 %
b1010 +
#5200
1'
#5210
b0 #
b0 -
b1011 $
b1011 ,
b0 !
b0 /
b1011 "
b1011 .
#5300
0'
#5310
b1011 &
b1011 *
b1011 %
b1011 +
#5400
1'
#5410
b1 #
b1 -
b1100 $
b1100 ,
b1 !
b1 /
b1100 "
b1100 .
#5500
0'
#5510
b1100 &
b1100 *
b1100 %
b1100 +
#5600
1'
#5610
b10 #
b10 -
b1101 $
b1101 ,
b10 !
b10 /
b1101 "
b1101 .
#5700
0'
#5710
b1101 &
b1101 *
b1101 %
b1101 +
#5800
1'
#5810
b11 #
b11 -
b1110 $
b1110 ,
b11 !
b11 /
b1110 "
b1110 .
#5900
0'
#5910
b1110 &
b1110 *
b1110 %
b1110 +
#6000
1'
#6010
b100 #
b100 -
b1111 $
b1111 ,
b100 !
b100 /
b1111 "
b1111 .
#6100
0'
#6110
b1111 &
b1111 *
b1111 %
b1111 +
#6200
1'
#6210
b101 #
b101 -
b0 $
b0 ,
b101 !
b101 /
b0 "
b0 .
#6300
0'
#6310
b0 &
b0 *
b0 %
b0 +
#6400
1'
#6410
b110 #
b110 -
b1 $
b1 ,
b110 !
b110 /
b1 "
b1 .
#6500
0'
#6510
b1 &
b1 *
b1 %
b1 +
#6600
1'
#6610
b111 #
b111 -
b10 $
b10 ,
b111 !
b111 /
b10 "
b10 .
#6700
0'
#6710
b10 &
b10 *
b10 %
b10 +
#6800
1'
#6810
b1000 #
b1000 -
b11 $
b11 ,
b1000 !
b1000 /
b11 "
b11 .
#6900
0'
#6910
b11 &
b11 *
b11 %
b11 +
#7000
1'
#7010
b1001 #
b1001 -
b100 $
b100 ,
b1001 !
b1001 /
b100 "
b100 .
#7100
0'
#7110
b100 &
b100 *
b100 %
b100 +
#7200
1'
#7210
b1010 #
b1010 -
b101 $
b101 ,
b1010 !
b1010 /
b101 "
b101 .
#7300
0'
#7310
b101 &
b101 *
b101 %
b101 +
#7400
1'
#7410
b1011 #
b1011 -
b110 $
b110 ,
b1011 !
b1011 /
b110 "
b110 .
#7500
0'
#7510
b110 &
b110 *
b110 %
b110 +
#7600
1'
#7610
b1100 #
b1100 -
b111 $
b111 ,
b1100 !
b1100 /
b111 "
b111 .
#7700
0'
#7710
b111 &
b111 *
b111 %
b111 +
#7800
1'
#7810
b1101 #
b1101 -
b1000 $
b1000 ,
b1101 !
b1101 /
b1000 "
b1000 .
#7900
0'
#7910
b1000 &
b1000 *
b1000 %
b1000 +
#8000
1'
#8010
b1110 #
b1110 -
b1001 $
b1001 ,
b1110 !
b1110 /
b1001 "
b1001 .
#8100
0'
#8110
b1001 &
b1001 *
b1001 %
b1001 +
#8200
1'
#8210
b1111 #
b1111 -
b1010 $
b1010 ,
b1111 !
b1111 /
b1010 "
b1010 .
#8300
0'
#8310
b1010 &
b1010 *
b1010 %
b1010 +
#8400
1'
#8410
b0 #
b0 -
b1011 $
b1011 ,
b0 !
b0 /
b1011 "
b1011 .
#8500
0'
#8510
b1011 &
b1011 *
b1011 %
b1011 +
#8600
1'
#8610
b1 #
b1 -
b1100 $
b1100 ,
b1 !
b1 /
b1100 "
b1100 .
#8700
0'
#8710
b1100 &
b1100 *
b1100 %
b1100 +
#8800
1'
#8810
b10 #
b10 -
b1101 $
b1101 ,
b10 !
b10 /
b1101 "
b1101 .
#8900
0'
#8910
b1101 &
b1101 *
b1101 %
b1101 +
#9000
1'
#9010
b11 #
b11 -
b1110 $
b1110 ,
b11 !
b11 /
b1110 "
b1110 .
#9100
0'
#9110
b1110 &
b1110 *
b1110 %
b1110 +
#9200
1'
#9210
b100 #
b100 -
b1111 $
b1111 ,
b100 !
b100 /
b1111 "
b1111 .
#9300
0'
#9310
b1111 &
b1111 *
b1111 %
b1111 +
#9400
1'
#9410
b101 #
b101 -
b0 $
b0 ,
b101 !
b101 /
b0 "
b0 .
#9500
0'
#9510
b0 &
b0 *
b0 %
b0 +
#9600
1'
#9610
b110 #
b110 -
b1 $
b1 ,
b110 !
b110 /
b1 "
b1 .
#9700
0'
#9710
b1 &
b1 *
b1 %
b1 +
#9800
1'
#9810
b111 #
b111 -
b10 $
b10 ,
b111 !
b111 /
b10 "
b10 .
#9900
0'
#9910
b10 &
b10 *
b10 %
b10 +
